G04 #@! TF.FileFunction,Legend,Bot*
%FSLAX46Y46*%
G04 Gerber Fmt 4.6, Leading zero omitted, Abs format (unit mm)*
G04 Created by KiCad (PCBNEW 4.0.2-stable) date 01.09.2016 16:10:54*
%MOMM*%
G01*
G04 APERTURE LIST*
%ADD10C,0.100000*%
%ADD11C,0.150000*%
G04 APERTURE END LIST*
D10*
D11*
X61849000Y34036000D02*
X61849000Y42164000D01*
X61849000Y42164000D02*
X58293000Y42164000D01*
X58293000Y42164000D02*
X57785000Y42164000D01*
X57785000Y42164000D02*
X57785000Y34036000D01*
X57785000Y34036000D02*
X61849000Y34036000D01*
X63980000Y29960000D02*
X60480000Y29960000D01*
X60480000Y29960000D02*
X60480000Y28460000D01*
X60480000Y28460000D02*
X63980000Y28460000D01*
X63980000Y28460000D02*
X63980000Y29960000D01*
X131036000Y29960000D02*
X127536000Y29960000D01*
X127536000Y29960000D02*
X127536000Y28460000D01*
X127536000Y28460000D02*
X131036000Y28460000D01*
X131036000Y28460000D02*
X131036000Y29960000D01*
X71600000Y29960000D02*
X68100000Y29960000D01*
X68100000Y29960000D02*
X68100000Y28460000D01*
X68100000Y28460000D02*
X71600000Y28460000D01*
X71600000Y28460000D02*
X71600000Y29960000D01*
X138656000Y29960000D02*
X135156000Y29960000D01*
X135156000Y29960000D02*
X135156000Y28460000D01*
X135156000Y28460000D02*
X138656000Y28460000D01*
X138656000Y28460000D02*
X138656000Y29960000D01*
X79220000Y29960000D02*
X75720000Y29960000D01*
X75720000Y29960000D02*
X75720000Y28460000D01*
X75720000Y28460000D02*
X79220000Y28460000D01*
X79220000Y28460000D02*
X79220000Y29960000D01*
X146276000Y29960000D02*
X142776000Y29960000D01*
X142776000Y29960000D02*
X142776000Y28460000D01*
X142776000Y28460000D02*
X146276000Y28460000D01*
X146276000Y28460000D02*
X146276000Y29960000D01*
X86840000Y29960000D02*
X83340000Y29960000D01*
X83340000Y29960000D02*
X83340000Y28460000D01*
X83340000Y28460000D02*
X86840000Y28460000D01*
X86840000Y28460000D02*
X86840000Y29960000D01*
X153896000Y29960000D02*
X150396000Y29960000D01*
X150396000Y29960000D02*
X150396000Y28460000D01*
X150396000Y28460000D02*
X153896000Y28460000D01*
X153896000Y28460000D02*
X153896000Y29960000D01*
X94460000Y29960000D02*
X90960000Y29960000D01*
X90960000Y29960000D02*
X90960000Y28460000D01*
X90960000Y28460000D02*
X94460000Y28460000D01*
X94460000Y28460000D02*
X94460000Y29960000D01*
X161516000Y29960000D02*
X158016000Y29960000D01*
X158016000Y29960000D02*
X158016000Y28460000D01*
X158016000Y28460000D02*
X161516000Y28460000D01*
X161516000Y28460000D02*
X161516000Y29960000D01*
X102080000Y29960000D02*
X98580000Y29960000D01*
X98580000Y29960000D02*
X98580000Y28460000D01*
X98580000Y28460000D02*
X102080000Y28460000D01*
X102080000Y28460000D02*
X102080000Y29960000D01*
X169136000Y29960000D02*
X165636000Y29960000D01*
X165636000Y29960000D02*
X165636000Y28460000D01*
X165636000Y28460000D02*
X169136000Y28460000D01*
X169136000Y28460000D02*
X169136000Y29960000D01*
X57670000Y30960000D02*
X57670000Y27460000D01*
X57670000Y27460000D02*
X59170000Y27460000D01*
X59170000Y27460000D02*
X59170000Y30960000D01*
X59170000Y30960000D02*
X57670000Y30960000D01*
X124726000Y30960000D02*
X124726000Y27460000D01*
X124726000Y27460000D02*
X126226000Y27460000D01*
X126226000Y27460000D02*
X126226000Y30960000D01*
X126226000Y30960000D02*
X124726000Y30960000D01*
X65290000Y30960000D02*
X65290000Y27460000D01*
X65290000Y27460000D02*
X66790000Y27460000D01*
X66790000Y27460000D02*
X66790000Y30960000D01*
X66790000Y30960000D02*
X65290000Y30960000D01*
X132346000Y30960000D02*
X132346000Y27460000D01*
X132346000Y27460000D02*
X133846000Y27460000D01*
X133846000Y27460000D02*
X133846000Y30960000D01*
X133846000Y30960000D02*
X132346000Y30960000D01*
X72910000Y30960000D02*
X72910000Y27460000D01*
X72910000Y27460000D02*
X74410000Y27460000D01*
X74410000Y27460000D02*
X74410000Y30960000D01*
X74410000Y30960000D02*
X72910000Y30960000D01*
X139966000Y30960000D02*
X139966000Y27460000D01*
X139966000Y27460000D02*
X141466000Y27460000D01*
X141466000Y27460000D02*
X141466000Y30960000D01*
X141466000Y30960000D02*
X139966000Y30960000D01*
X80530000Y30960000D02*
X80530000Y27460000D01*
X80530000Y27460000D02*
X82030000Y27460000D01*
X82030000Y27460000D02*
X82030000Y30960000D01*
X82030000Y30960000D02*
X80530000Y30960000D01*
X147586000Y30960000D02*
X147586000Y27460000D01*
X147586000Y27460000D02*
X149086000Y27460000D01*
X149086000Y27460000D02*
X149086000Y30960000D01*
X149086000Y30960000D02*
X147586000Y30960000D01*
X88150000Y30960000D02*
X88150000Y27460000D01*
X88150000Y27460000D02*
X89650000Y27460000D01*
X89650000Y27460000D02*
X89650000Y30960000D01*
X89650000Y30960000D02*
X88150000Y30960000D01*
X155206000Y30960000D02*
X155206000Y27460000D01*
X155206000Y27460000D02*
X156706000Y27460000D01*
X156706000Y27460000D02*
X156706000Y30960000D01*
X156706000Y30960000D02*
X155206000Y30960000D01*
X95770000Y30960000D02*
X95770000Y27460000D01*
X95770000Y27460000D02*
X97270000Y27460000D01*
X97270000Y27460000D02*
X97270000Y30960000D01*
X97270000Y30960000D02*
X95770000Y30960000D01*
X162826000Y30960000D02*
X162826000Y27460000D01*
X162826000Y27460000D02*
X164326000Y27460000D01*
X164326000Y27460000D02*
X164326000Y30960000D01*
X164326000Y30960000D02*
X162826000Y30960000D01*
X103390000Y30960000D02*
X103390000Y27460000D01*
X103390000Y27460000D02*
X104890000Y27460000D01*
X104890000Y27460000D02*
X104890000Y30960000D01*
X104890000Y30960000D02*
X103390000Y30960000D01*
X170446000Y30960000D02*
X170446000Y27460000D01*
X170446000Y27460000D02*
X171946000Y27460000D01*
X171946000Y27460000D02*
X171946000Y30960000D01*
X171946000Y30960000D02*
X170446000Y30960000D01*
X171569000Y40864000D02*
X171569000Y43464000D01*
X171569000Y43464000D02*
X170569000Y43464000D01*
X170569000Y43464000D02*
X170569000Y40864000D01*
X170569000Y40864000D02*
X171569000Y40864000D01*
X104513000Y40356000D02*
X104513000Y42956000D01*
X104513000Y42956000D02*
X103513000Y42956000D01*
X103513000Y42956000D02*
X103513000Y40356000D01*
X103513000Y40356000D02*
X104513000Y40356000D01*
X174617000Y40864000D02*
X174617000Y43464000D01*
X174617000Y43464000D02*
X173617000Y43464000D01*
X173617000Y43464000D02*
X173617000Y40864000D01*
X173617000Y40864000D02*
X174617000Y40864000D01*
X107561000Y40356000D02*
X107561000Y42956000D01*
X107561000Y42956000D02*
X106561000Y42956000D01*
X106561000Y42956000D02*
X106561000Y40356000D01*
X106561000Y40356000D02*
X107561000Y40356000D01*
X177665000Y40864000D02*
X177665000Y43464000D01*
X177665000Y43464000D02*
X176665000Y43464000D01*
X176665000Y43464000D02*
X176665000Y40864000D01*
X176665000Y40864000D02*
X177665000Y40864000D01*
X110609000Y40356000D02*
X110609000Y42956000D01*
X110609000Y42956000D02*
X109609000Y42956000D01*
X109609000Y42956000D02*
X109609000Y40356000D01*
X109609000Y40356000D02*
X110609000Y40356000D01*
X180713000Y40864000D02*
X180713000Y43464000D01*
X180713000Y43464000D02*
X179713000Y43464000D01*
X179713000Y43464000D02*
X179713000Y40864000D01*
X179713000Y40864000D02*
X180713000Y40864000D01*
X113149000Y40356000D02*
X113149000Y42956000D01*
X113149000Y42956000D02*
X112149000Y42956000D01*
X112149000Y42956000D02*
X112149000Y40356000D01*
X112149000Y40356000D02*
X113149000Y40356000D01*
X183761000Y40864000D02*
X183761000Y43464000D01*
X183761000Y43464000D02*
X182761000Y43464000D01*
X182761000Y43464000D02*
X182761000Y40864000D01*
X182761000Y40864000D02*
X183761000Y40864000D01*
X116197000Y40356000D02*
X116197000Y42956000D01*
X116197000Y42956000D02*
X115197000Y42956000D01*
X115197000Y42956000D02*
X115197000Y40356000D01*
X115197000Y40356000D02*
X116197000Y40356000D01*
X186809000Y40864000D02*
X186809000Y43464000D01*
X186809000Y43464000D02*
X185809000Y43464000D01*
X185809000Y43464000D02*
X185809000Y40864000D01*
X185809000Y40864000D02*
X186809000Y40864000D01*
X118737000Y40356000D02*
X118737000Y42956000D01*
X118737000Y42956000D02*
X117737000Y42956000D01*
X117737000Y42956000D02*
X117737000Y40356000D01*
X117737000Y40356000D02*
X118737000Y40356000D01*
X85725000Y34036000D02*
X85725000Y42164000D01*
X85725000Y42164000D02*
X82169000Y42164000D01*
X82169000Y42164000D02*
X81661000Y42164000D01*
X81661000Y42164000D02*
X81661000Y34036000D01*
X81661000Y34036000D02*
X85725000Y34036000D01*
X130429000Y34036000D02*
X130429000Y42164000D01*
X130429000Y42164000D02*
X126873000Y42164000D01*
X126873000Y42164000D02*
X126365000Y42164000D01*
X126365000Y42164000D02*
X126365000Y34036000D01*
X126365000Y34036000D02*
X130429000Y34036000D01*
X153289000Y34036000D02*
X153289000Y42164000D01*
X153289000Y42164000D02*
X149733000Y42164000D01*
X149733000Y42164000D02*
X149225000Y42164000D01*
X149225000Y42164000D02*
X149225000Y34036000D01*
X149225000Y34036000D02*
X153289000Y34036000D01*
X69977000Y34036000D02*
X69977000Y42164000D01*
X69977000Y42164000D02*
X66421000Y42164000D01*
X66421000Y42164000D02*
X65913000Y42164000D01*
X65913000Y42164000D02*
X65913000Y34036000D01*
X65913000Y34036000D02*
X69977000Y34036000D01*
X93345000Y34036000D02*
X93345000Y42164000D01*
X93345000Y42164000D02*
X89789000Y42164000D01*
X89789000Y42164000D02*
X89281000Y42164000D01*
X89281000Y42164000D02*
X89281000Y34036000D01*
X89281000Y34036000D02*
X93345000Y34036000D01*
X138049000Y34036000D02*
X138049000Y42164000D01*
X138049000Y42164000D02*
X134493000Y42164000D01*
X134493000Y42164000D02*
X133985000Y42164000D01*
X133985000Y42164000D02*
X133985000Y34036000D01*
X133985000Y34036000D02*
X138049000Y34036000D01*
X160401000Y34036000D02*
X160401000Y42164000D01*
X160401000Y42164000D02*
X156845000Y42164000D01*
X156845000Y42164000D02*
X156337000Y42164000D01*
X156337000Y42164000D02*
X156337000Y34036000D01*
X156337000Y34036000D02*
X160401000Y34036000D01*
X78105000Y34036000D02*
X78105000Y42164000D01*
X78105000Y42164000D02*
X74549000Y42164000D01*
X74549000Y42164000D02*
X74041000Y42164000D01*
X74041000Y42164000D02*
X74041000Y34036000D01*
X74041000Y34036000D02*
X78105000Y34036000D01*
X100965000Y34036000D02*
X100965000Y42164000D01*
X100965000Y42164000D02*
X97409000Y42164000D01*
X97409000Y42164000D02*
X96901000Y42164000D01*
X96901000Y42164000D02*
X96901000Y34036000D01*
X96901000Y34036000D02*
X100965000Y34036000D01*
X145669000Y34036000D02*
X145669000Y42164000D01*
X145669000Y42164000D02*
X142113000Y42164000D01*
X142113000Y42164000D02*
X141605000Y42164000D01*
X141605000Y42164000D02*
X141605000Y34036000D01*
X141605000Y34036000D02*
X145669000Y34036000D01*
X167513000Y34036000D02*
X167513000Y42164000D01*
X167513000Y42164000D02*
X163957000Y42164000D01*
X163957000Y42164000D02*
X163449000Y42164000D01*
X163449000Y42164000D02*
X163449000Y34036000D01*
X163449000Y34036000D02*
X167513000Y34036000D01*
X57069381Y38842857D02*
X56593190Y39176191D01*
X57069381Y39414286D02*
X56069381Y39414286D01*
X56069381Y39033333D01*
X56117000Y38938095D01*
X56164619Y38890476D01*
X56259857Y38842857D01*
X56402714Y38842857D01*
X56497952Y38890476D01*
X56545571Y38938095D01*
X56593190Y39033333D01*
X56593190Y39414286D01*
X56164619Y38461905D02*
X56117000Y38414286D01*
X56069381Y38319048D01*
X56069381Y38080952D01*
X56117000Y37985714D01*
X56164619Y37938095D01*
X56259857Y37890476D01*
X56355095Y37890476D01*
X56497952Y37938095D01*
X57069381Y38509524D01*
X57069381Y37890476D01*
X56164619Y37509524D02*
X56117000Y37461905D01*
X56069381Y37366667D01*
X56069381Y37128571D01*
X56117000Y37033333D01*
X56164619Y36985714D01*
X56259857Y36938095D01*
X56355095Y36938095D01*
X56497952Y36985714D01*
X57069381Y37557143D01*
X57069381Y36938095D01*
X62872857Y27352857D02*
X62920476Y27305238D01*
X63063333Y27257619D01*
X63158571Y27257619D01*
X63301429Y27305238D01*
X63396667Y27400476D01*
X63444286Y27495714D01*
X63491905Y27686190D01*
X63491905Y27829048D01*
X63444286Y28019524D01*
X63396667Y28114762D01*
X63301429Y28210000D01*
X63158571Y28257619D01*
X63063333Y28257619D01*
X62920476Y28210000D01*
X62872857Y28162381D01*
X61920476Y27257619D02*
X62491905Y27257619D01*
X62206191Y27257619D02*
X62206191Y28257619D01*
X62301429Y28114762D01*
X62396667Y28019524D01*
X62491905Y27971905D01*
X61301429Y28257619D02*
X61206190Y28257619D01*
X61110952Y28210000D01*
X61063333Y28162381D01*
X61015714Y28067143D01*
X60968095Y27876667D01*
X60968095Y27638571D01*
X61015714Y27448095D01*
X61063333Y27352857D01*
X61110952Y27305238D01*
X61206190Y27257619D01*
X61301429Y27257619D01*
X61396667Y27305238D01*
X61444286Y27352857D01*
X61491905Y27448095D01*
X61539524Y27638571D01*
X61539524Y27876667D01*
X61491905Y28067143D01*
X61444286Y28162381D01*
X61396667Y28210000D01*
X61301429Y28257619D01*
X129928857Y27352857D02*
X129976476Y27305238D01*
X130119333Y27257619D01*
X130214571Y27257619D01*
X130357429Y27305238D01*
X130452667Y27400476D01*
X130500286Y27495714D01*
X130547905Y27686190D01*
X130547905Y27829048D01*
X130500286Y28019524D01*
X130452667Y28114762D01*
X130357429Y28210000D01*
X130214571Y28257619D01*
X130119333Y28257619D01*
X129976476Y28210000D01*
X129928857Y28162381D01*
X128976476Y27257619D02*
X129547905Y27257619D01*
X129262191Y27257619D02*
X129262191Y28257619D01*
X129357429Y28114762D01*
X129452667Y28019524D01*
X129547905Y27971905D01*
X128024095Y27257619D02*
X128595524Y27257619D01*
X128309810Y27257619D02*
X128309810Y28257619D01*
X128405048Y28114762D01*
X128500286Y28019524D01*
X128595524Y27971905D01*
X70492857Y27352857D02*
X70540476Y27305238D01*
X70683333Y27257619D01*
X70778571Y27257619D01*
X70921429Y27305238D01*
X71016667Y27400476D01*
X71064286Y27495714D01*
X71111905Y27686190D01*
X71111905Y27829048D01*
X71064286Y28019524D01*
X71016667Y28114762D01*
X70921429Y28210000D01*
X70778571Y28257619D01*
X70683333Y28257619D01*
X70540476Y28210000D01*
X70492857Y28162381D01*
X69540476Y27257619D02*
X70111905Y27257619D01*
X69826191Y27257619D02*
X69826191Y28257619D01*
X69921429Y28114762D01*
X70016667Y28019524D01*
X70111905Y27971905D01*
X69159524Y28162381D02*
X69111905Y28210000D01*
X69016667Y28257619D01*
X68778571Y28257619D01*
X68683333Y28210000D01*
X68635714Y28162381D01*
X68588095Y28067143D01*
X68588095Y27971905D01*
X68635714Y27829048D01*
X69207143Y27257619D01*
X68588095Y27257619D01*
X137548857Y27352857D02*
X137596476Y27305238D01*
X137739333Y27257619D01*
X137834571Y27257619D01*
X137977429Y27305238D01*
X138072667Y27400476D01*
X138120286Y27495714D01*
X138167905Y27686190D01*
X138167905Y27829048D01*
X138120286Y28019524D01*
X138072667Y28114762D01*
X137977429Y28210000D01*
X137834571Y28257619D01*
X137739333Y28257619D01*
X137596476Y28210000D01*
X137548857Y28162381D01*
X136596476Y27257619D02*
X137167905Y27257619D01*
X136882191Y27257619D02*
X136882191Y28257619D01*
X136977429Y28114762D01*
X137072667Y28019524D01*
X137167905Y27971905D01*
X136263143Y28257619D02*
X135644095Y28257619D01*
X135977429Y27876667D01*
X135834571Y27876667D01*
X135739333Y27829048D01*
X135691714Y27781429D01*
X135644095Y27686190D01*
X135644095Y27448095D01*
X135691714Y27352857D01*
X135739333Y27305238D01*
X135834571Y27257619D01*
X136120286Y27257619D01*
X136215524Y27305238D01*
X136263143Y27352857D01*
X78112857Y27352857D02*
X78160476Y27305238D01*
X78303333Y27257619D01*
X78398571Y27257619D01*
X78541429Y27305238D01*
X78636667Y27400476D01*
X78684286Y27495714D01*
X78731905Y27686190D01*
X78731905Y27829048D01*
X78684286Y28019524D01*
X78636667Y28114762D01*
X78541429Y28210000D01*
X78398571Y28257619D01*
X78303333Y28257619D01*
X78160476Y28210000D01*
X78112857Y28162381D01*
X77160476Y27257619D02*
X77731905Y27257619D01*
X77446191Y27257619D02*
X77446191Y28257619D01*
X77541429Y28114762D01*
X77636667Y28019524D01*
X77731905Y27971905D01*
X76303333Y27924286D02*
X76303333Y27257619D01*
X76541429Y28305238D02*
X76779524Y27590952D01*
X76160476Y27590952D01*
X145168857Y27352857D02*
X145216476Y27305238D01*
X145359333Y27257619D01*
X145454571Y27257619D01*
X145597429Y27305238D01*
X145692667Y27400476D01*
X145740286Y27495714D01*
X145787905Y27686190D01*
X145787905Y27829048D01*
X145740286Y28019524D01*
X145692667Y28114762D01*
X145597429Y28210000D01*
X145454571Y28257619D01*
X145359333Y28257619D01*
X145216476Y28210000D01*
X145168857Y28162381D01*
X144216476Y27257619D02*
X144787905Y27257619D01*
X144502191Y27257619D02*
X144502191Y28257619D01*
X144597429Y28114762D01*
X144692667Y28019524D01*
X144787905Y27971905D01*
X143311714Y28257619D02*
X143787905Y28257619D01*
X143835524Y27781429D01*
X143787905Y27829048D01*
X143692667Y27876667D01*
X143454571Y27876667D01*
X143359333Y27829048D01*
X143311714Y27781429D01*
X143264095Y27686190D01*
X143264095Y27448095D01*
X143311714Y27352857D01*
X143359333Y27305238D01*
X143454571Y27257619D01*
X143692667Y27257619D01*
X143787905Y27305238D01*
X143835524Y27352857D01*
X85732857Y27352857D02*
X85780476Y27305238D01*
X85923333Y27257619D01*
X86018571Y27257619D01*
X86161429Y27305238D01*
X86256667Y27400476D01*
X86304286Y27495714D01*
X86351905Y27686190D01*
X86351905Y27829048D01*
X86304286Y28019524D01*
X86256667Y28114762D01*
X86161429Y28210000D01*
X86018571Y28257619D01*
X85923333Y28257619D01*
X85780476Y28210000D01*
X85732857Y28162381D01*
X84780476Y27257619D02*
X85351905Y27257619D01*
X85066191Y27257619D02*
X85066191Y28257619D01*
X85161429Y28114762D01*
X85256667Y28019524D01*
X85351905Y27971905D01*
X83923333Y28257619D02*
X84113810Y28257619D01*
X84209048Y28210000D01*
X84256667Y28162381D01*
X84351905Y28019524D01*
X84399524Y27829048D01*
X84399524Y27448095D01*
X84351905Y27352857D01*
X84304286Y27305238D01*
X84209048Y27257619D01*
X84018571Y27257619D01*
X83923333Y27305238D01*
X83875714Y27352857D01*
X83828095Y27448095D01*
X83828095Y27686190D01*
X83875714Y27781429D01*
X83923333Y27829048D01*
X84018571Y27876667D01*
X84209048Y27876667D01*
X84304286Y27829048D01*
X84351905Y27781429D01*
X84399524Y27686190D01*
X152788857Y27352857D02*
X152836476Y27305238D01*
X152979333Y27257619D01*
X153074571Y27257619D01*
X153217429Y27305238D01*
X153312667Y27400476D01*
X153360286Y27495714D01*
X153407905Y27686190D01*
X153407905Y27829048D01*
X153360286Y28019524D01*
X153312667Y28114762D01*
X153217429Y28210000D01*
X153074571Y28257619D01*
X152979333Y28257619D01*
X152836476Y28210000D01*
X152788857Y28162381D01*
X151836476Y27257619D02*
X152407905Y27257619D01*
X152122191Y27257619D02*
X152122191Y28257619D01*
X152217429Y28114762D01*
X152312667Y28019524D01*
X152407905Y27971905D01*
X151503143Y28257619D02*
X150836476Y28257619D01*
X151265048Y27257619D01*
X93352857Y27352857D02*
X93400476Y27305238D01*
X93543333Y27257619D01*
X93638571Y27257619D01*
X93781429Y27305238D01*
X93876667Y27400476D01*
X93924286Y27495714D01*
X93971905Y27686190D01*
X93971905Y27829048D01*
X93924286Y28019524D01*
X93876667Y28114762D01*
X93781429Y28210000D01*
X93638571Y28257619D01*
X93543333Y28257619D01*
X93400476Y28210000D01*
X93352857Y28162381D01*
X92400476Y27257619D02*
X92971905Y27257619D01*
X92686191Y27257619D02*
X92686191Y28257619D01*
X92781429Y28114762D01*
X92876667Y28019524D01*
X92971905Y27971905D01*
X91829048Y27829048D02*
X91924286Y27876667D01*
X91971905Y27924286D01*
X92019524Y28019524D01*
X92019524Y28067143D01*
X91971905Y28162381D01*
X91924286Y28210000D01*
X91829048Y28257619D01*
X91638571Y28257619D01*
X91543333Y28210000D01*
X91495714Y28162381D01*
X91448095Y28067143D01*
X91448095Y28019524D01*
X91495714Y27924286D01*
X91543333Y27876667D01*
X91638571Y27829048D01*
X91829048Y27829048D01*
X91924286Y27781429D01*
X91971905Y27733810D01*
X92019524Y27638571D01*
X92019524Y27448095D01*
X91971905Y27352857D01*
X91924286Y27305238D01*
X91829048Y27257619D01*
X91638571Y27257619D01*
X91543333Y27305238D01*
X91495714Y27352857D01*
X91448095Y27448095D01*
X91448095Y27638571D01*
X91495714Y27733810D01*
X91543333Y27781429D01*
X91638571Y27829048D01*
X160408857Y27352857D02*
X160456476Y27305238D01*
X160599333Y27257619D01*
X160694571Y27257619D01*
X160837429Y27305238D01*
X160932667Y27400476D01*
X160980286Y27495714D01*
X161027905Y27686190D01*
X161027905Y27829048D01*
X160980286Y28019524D01*
X160932667Y28114762D01*
X160837429Y28210000D01*
X160694571Y28257619D01*
X160599333Y28257619D01*
X160456476Y28210000D01*
X160408857Y28162381D01*
X159456476Y27257619D02*
X160027905Y27257619D01*
X159742191Y27257619D02*
X159742191Y28257619D01*
X159837429Y28114762D01*
X159932667Y28019524D01*
X160027905Y27971905D01*
X158980286Y27257619D02*
X158789810Y27257619D01*
X158694571Y27305238D01*
X158646952Y27352857D01*
X158551714Y27495714D01*
X158504095Y27686190D01*
X158504095Y28067143D01*
X158551714Y28162381D01*
X158599333Y28210000D01*
X158694571Y28257619D01*
X158885048Y28257619D01*
X158980286Y28210000D01*
X159027905Y28162381D01*
X159075524Y28067143D01*
X159075524Y27829048D01*
X159027905Y27733810D01*
X158980286Y27686190D01*
X158885048Y27638571D01*
X158694571Y27638571D01*
X158599333Y27686190D01*
X158551714Y27733810D01*
X158504095Y27829048D01*
X100972857Y27352857D02*
X101020476Y27305238D01*
X101163333Y27257619D01*
X101258571Y27257619D01*
X101401429Y27305238D01*
X101496667Y27400476D01*
X101544286Y27495714D01*
X101591905Y27686190D01*
X101591905Y27829048D01*
X101544286Y28019524D01*
X101496667Y28114762D01*
X101401429Y28210000D01*
X101258571Y28257619D01*
X101163333Y28257619D01*
X101020476Y28210000D01*
X100972857Y28162381D01*
X100591905Y28162381D02*
X100544286Y28210000D01*
X100449048Y28257619D01*
X100210952Y28257619D01*
X100115714Y28210000D01*
X100068095Y28162381D01*
X100020476Y28067143D01*
X100020476Y27971905D01*
X100068095Y27829048D01*
X100639524Y27257619D01*
X100020476Y27257619D01*
X99401429Y28257619D02*
X99306190Y28257619D01*
X99210952Y28210000D01*
X99163333Y28162381D01*
X99115714Y28067143D01*
X99068095Y27876667D01*
X99068095Y27638571D01*
X99115714Y27448095D01*
X99163333Y27352857D01*
X99210952Y27305238D01*
X99306190Y27257619D01*
X99401429Y27257619D01*
X99496667Y27305238D01*
X99544286Y27352857D01*
X99591905Y27448095D01*
X99639524Y27638571D01*
X99639524Y27876667D01*
X99591905Y28067143D01*
X99544286Y28162381D01*
X99496667Y28210000D01*
X99401429Y28257619D01*
X168028857Y27352857D02*
X168076476Y27305238D01*
X168219333Y27257619D01*
X168314571Y27257619D01*
X168457429Y27305238D01*
X168552667Y27400476D01*
X168600286Y27495714D01*
X168647905Y27686190D01*
X168647905Y27829048D01*
X168600286Y28019524D01*
X168552667Y28114762D01*
X168457429Y28210000D01*
X168314571Y28257619D01*
X168219333Y28257619D01*
X168076476Y28210000D01*
X168028857Y28162381D01*
X167647905Y28162381D02*
X167600286Y28210000D01*
X167505048Y28257619D01*
X167266952Y28257619D01*
X167171714Y28210000D01*
X167124095Y28162381D01*
X167076476Y28067143D01*
X167076476Y27971905D01*
X167124095Y27829048D01*
X167695524Y27257619D01*
X167076476Y27257619D01*
X166124095Y27257619D02*
X166695524Y27257619D01*
X166409810Y27257619D02*
X166409810Y28257619D01*
X166505048Y28114762D01*
X166600286Y28019524D01*
X166695524Y27971905D01*
X60277143Y29852857D02*
X60324762Y29900476D01*
X60372381Y30043333D01*
X60372381Y30138571D01*
X60324762Y30281429D01*
X60229524Y30376667D01*
X60134286Y30424286D01*
X59943810Y30471905D01*
X59800952Y30471905D01*
X59610476Y30424286D01*
X59515238Y30376667D01*
X59420000Y30281429D01*
X59372381Y30138571D01*
X59372381Y30043333D01*
X59420000Y29900476D01*
X59467619Y29852857D01*
X59467619Y29471905D02*
X59420000Y29424286D01*
X59372381Y29329048D01*
X59372381Y29090952D01*
X59420000Y28995714D01*
X59467619Y28948095D01*
X59562857Y28900476D01*
X59658095Y28900476D01*
X59800952Y28948095D01*
X60372381Y29519524D01*
X60372381Y28900476D01*
X59467619Y28519524D02*
X59420000Y28471905D01*
X59372381Y28376667D01*
X59372381Y28138571D01*
X59420000Y28043333D01*
X59467619Y27995714D01*
X59562857Y27948095D01*
X59658095Y27948095D01*
X59800952Y27995714D01*
X60372381Y28567143D01*
X60372381Y27948095D01*
X127333143Y29852857D02*
X127380762Y29900476D01*
X127428381Y30043333D01*
X127428381Y30138571D01*
X127380762Y30281429D01*
X127285524Y30376667D01*
X127190286Y30424286D01*
X126999810Y30471905D01*
X126856952Y30471905D01*
X126666476Y30424286D01*
X126571238Y30376667D01*
X126476000Y30281429D01*
X126428381Y30138571D01*
X126428381Y30043333D01*
X126476000Y29900476D01*
X126523619Y29852857D01*
X126523619Y29471905D02*
X126476000Y29424286D01*
X126428381Y29329048D01*
X126428381Y29090952D01*
X126476000Y28995714D01*
X126523619Y28948095D01*
X126618857Y28900476D01*
X126714095Y28900476D01*
X126856952Y28948095D01*
X127428381Y29519524D01*
X127428381Y28900476D01*
X126428381Y28567143D02*
X126428381Y27948095D01*
X126809333Y28281429D01*
X126809333Y28138571D01*
X126856952Y28043333D01*
X126904571Y27995714D01*
X126999810Y27948095D01*
X127237905Y27948095D01*
X127333143Y27995714D01*
X127380762Y28043333D01*
X127428381Y28138571D01*
X127428381Y28424286D01*
X127380762Y28519524D01*
X127333143Y28567143D01*
X67897143Y29852857D02*
X67944762Y29900476D01*
X67992381Y30043333D01*
X67992381Y30138571D01*
X67944762Y30281429D01*
X67849524Y30376667D01*
X67754286Y30424286D01*
X67563810Y30471905D01*
X67420952Y30471905D01*
X67230476Y30424286D01*
X67135238Y30376667D01*
X67040000Y30281429D01*
X66992381Y30138571D01*
X66992381Y30043333D01*
X67040000Y29900476D01*
X67087619Y29852857D01*
X67087619Y29471905D02*
X67040000Y29424286D01*
X66992381Y29329048D01*
X66992381Y29090952D01*
X67040000Y28995714D01*
X67087619Y28948095D01*
X67182857Y28900476D01*
X67278095Y28900476D01*
X67420952Y28948095D01*
X67992381Y29519524D01*
X67992381Y28900476D01*
X67325714Y28043333D02*
X67992381Y28043333D01*
X66944762Y28281429D02*
X67659048Y28519524D01*
X67659048Y27900476D01*
X134953143Y29852857D02*
X135000762Y29900476D01*
X135048381Y30043333D01*
X135048381Y30138571D01*
X135000762Y30281429D01*
X134905524Y30376667D01*
X134810286Y30424286D01*
X134619810Y30471905D01*
X134476952Y30471905D01*
X134286476Y30424286D01*
X134191238Y30376667D01*
X134096000Y30281429D01*
X134048381Y30138571D01*
X134048381Y30043333D01*
X134096000Y29900476D01*
X134143619Y29852857D01*
X134143619Y29471905D02*
X134096000Y29424286D01*
X134048381Y29329048D01*
X134048381Y29090952D01*
X134096000Y28995714D01*
X134143619Y28948095D01*
X134238857Y28900476D01*
X134334095Y28900476D01*
X134476952Y28948095D01*
X135048381Y29519524D01*
X135048381Y28900476D01*
X134048381Y27995714D02*
X134048381Y28471905D01*
X134524571Y28519524D01*
X134476952Y28471905D01*
X134429333Y28376667D01*
X134429333Y28138571D01*
X134476952Y28043333D01*
X134524571Y27995714D01*
X134619810Y27948095D01*
X134857905Y27948095D01*
X134953143Y27995714D01*
X135000762Y28043333D01*
X135048381Y28138571D01*
X135048381Y28376667D01*
X135000762Y28471905D01*
X134953143Y28519524D01*
X75517143Y29852857D02*
X75564762Y29900476D01*
X75612381Y30043333D01*
X75612381Y30138571D01*
X75564762Y30281429D01*
X75469524Y30376667D01*
X75374286Y30424286D01*
X75183810Y30471905D01*
X75040952Y30471905D01*
X74850476Y30424286D01*
X74755238Y30376667D01*
X74660000Y30281429D01*
X74612381Y30138571D01*
X74612381Y30043333D01*
X74660000Y29900476D01*
X74707619Y29852857D01*
X74707619Y29471905D02*
X74660000Y29424286D01*
X74612381Y29329048D01*
X74612381Y29090952D01*
X74660000Y28995714D01*
X74707619Y28948095D01*
X74802857Y28900476D01*
X74898095Y28900476D01*
X75040952Y28948095D01*
X75612381Y29519524D01*
X75612381Y28900476D01*
X74612381Y28043333D02*
X74612381Y28233810D01*
X74660000Y28329048D01*
X74707619Y28376667D01*
X74850476Y28471905D01*
X75040952Y28519524D01*
X75421905Y28519524D01*
X75517143Y28471905D01*
X75564762Y28424286D01*
X75612381Y28329048D01*
X75612381Y28138571D01*
X75564762Y28043333D01*
X75517143Y27995714D01*
X75421905Y27948095D01*
X75183810Y27948095D01*
X75088571Y27995714D01*
X75040952Y28043333D01*
X74993333Y28138571D01*
X74993333Y28329048D01*
X75040952Y28424286D01*
X75088571Y28471905D01*
X75183810Y28519524D01*
X142573143Y29852857D02*
X142620762Y29900476D01*
X142668381Y30043333D01*
X142668381Y30138571D01*
X142620762Y30281429D01*
X142525524Y30376667D01*
X142430286Y30424286D01*
X142239810Y30471905D01*
X142096952Y30471905D01*
X141906476Y30424286D01*
X141811238Y30376667D01*
X141716000Y30281429D01*
X141668381Y30138571D01*
X141668381Y30043333D01*
X141716000Y29900476D01*
X141763619Y29852857D01*
X141763619Y29471905D02*
X141716000Y29424286D01*
X141668381Y29329048D01*
X141668381Y29090952D01*
X141716000Y28995714D01*
X141763619Y28948095D01*
X141858857Y28900476D01*
X141954095Y28900476D01*
X142096952Y28948095D01*
X142668381Y29519524D01*
X142668381Y28900476D01*
X141668381Y28567143D02*
X141668381Y27900476D01*
X142668381Y28329048D01*
X83137143Y29852857D02*
X83184762Y29900476D01*
X83232381Y30043333D01*
X83232381Y30138571D01*
X83184762Y30281429D01*
X83089524Y30376667D01*
X82994286Y30424286D01*
X82803810Y30471905D01*
X82660952Y30471905D01*
X82470476Y30424286D01*
X82375238Y30376667D01*
X82280000Y30281429D01*
X82232381Y30138571D01*
X82232381Y30043333D01*
X82280000Y29900476D01*
X82327619Y29852857D01*
X82327619Y29471905D02*
X82280000Y29424286D01*
X82232381Y29329048D01*
X82232381Y29090952D01*
X82280000Y28995714D01*
X82327619Y28948095D01*
X82422857Y28900476D01*
X82518095Y28900476D01*
X82660952Y28948095D01*
X83232381Y29519524D01*
X83232381Y28900476D01*
X82660952Y28329048D02*
X82613333Y28424286D01*
X82565714Y28471905D01*
X82470476Y28519524D01*
X82422857Y28519524D01*
X82327619Y28471905D01*
X82280000Y28424286D01*
X82232381Y28329048D01*
X82232381Y28138571D01*
X82280000Y28043333D01*
X82327619Y27995714D01*
X82422857Y27948095D01*
X82470476Y27948095D01*
X82565714Y27995714D01*
X82613333Y28043333D01*
X82660952Y28138571D01*
X82660952Y28329048D01*
X82708571Y28424286D01*
X82756190Y28471905D01*
X82851429Y28519524D01*
X83041905Y28519524D01*
X83137143Y28471905D01*
X83184762Y28424286D01*
X83232381Y28329048D01*
X83232381Y28138571D01*
X83184762Y28043333D01*
X83137143Y27995714D01*
X83041905Y27948095D01*
X82851429Y27948095D01*
X82756190Y27995714D01*
X82708571Y28043333D01*
X82660952Y28138571D01*
X150193143Y29852857D02*
X150240762Y29900476D01*
X150288381Y30043333D01*
X150288381Y30138571D01*
X150240762Y30281429D01*
X150145524Y30376667D01*
X150050286Y30424286D01*
X149859810Y30471905D01*
X149716952Y30471905D01*
X149526476Y30424286D01*
X149431238Y30376667D01*
X149336000Y30281429D01*
X149288381Y30138571D01*
X149288381Y30043333D01*
X149336000Y29900476D01*
X149383619Y29852857D01*
X149383619Y29471905D02*
X149336000Y29424286D01*
X149288381Y29329048D01*
X149288381Y29090952D01*
X149336000Y28995714D01*
X149383619Y28948095D01*
X149478857Y28900476D01*
X149574095Y28900476D01*
X149716952Y28948095D01*
X150288381Y29519524D01*
X150288381Y28900476D01*
X150288381Y28424286D02*
X150288381Y28233810D01*
X150240762Y28138571D01*
X150193143Y28090952D01*
X150050286Y27995714D01*
X149859810Y27948095D01*
X149478857Y27948095D01*
X149383619Y27995714D01*
X149336000Y28043333D01*
X149288381Y28138571D01*
X149288381Y28329048D01*
X149336000Y28424286D01*
X149383619Y28471905D01*
X149478857Y28519524D01*
X149716952Y28519524D01*
X149812190Y28471905D01*
X149859810Y28424286D01*
X149907429Y28329048D01*
X149907429Y28138571D01*
X149859810Y28043333D01*
X149812190Y27995714D01*
X149716952Y27948095D01*
X90757143Y29852857D02*
X90804762Y29900476D01*
X90852381Y30043333D01*
X90852381Y30138571D01*
X90804762Y30281429D01*
X90709524Y30376667D01*
X90614286Y30424286D01*
X90423810Y30471905D01*
X90280952Y30471905D01*
X90090476Y30424286D01*
X89995238Y30376667D01*
X89900000Y30281429D01*
X89852381Y30138571D01*
X89852381Y30043333D01*
X89900000Y29900476D01*
X89947619Y29852857D01*
X89852381Y29519524D02*
X89852381Y28900476D01*
X90233333Y29233810D01*
X90233333Y29090952D01*
X90280952Y28995714D01*
X90328571Y28948095D01*
X90423810Y28900476D01*
X90661905Y28900476D01*
X90757143Y28948095D01*
X90804762Y28995714D01*
X90852381Y29090952D01*
X90852381Y29376667D01*
X90804762Y29471905D01*
X90757143Y29519524D01*
X89852381Y28281429D02*
X89852381Y28186190D01*
X89900000Y28090952D01*
X89947619Y28043333D01*
X90042857Y27995714D01*
X90233333Y27948095D01*
X90471429Y27948095D01*
X90661905Y27995714D01*
X90757143Y28043333D01*
X90804762Y28090952D01*
X90852381Y28186190D01*
X90852381Y28281429D01*
X90804762Y28376667D01*
X90757143Y28424286D01*
X90661905Y28471905D01*
X90471429Y28519524D01*
X90233333Y28519524D01*
X90042857Y28471905D01*
X89947619Y28424286D01*
X89900000Y28376667D01*
X89852381Y28281429D01*
X157813143Y29852857D02*
X157860762Y29900476D01*
X157908381Y30043333D01*
X157908381Y30138571D01*
X157860762Y30281429D01*
X157765524Y30376667D01*
X157670286Y30424286D01*
X157479810Y30471905D01*
X157336952Y30471905D01*
X157146476Y30424286D01*
X157051238Y30376667D01*
X156956000Y30281429D01*
X156908381Y30138571D01*
X156908381Y30043333D01*
X156956000Y29900476D01*
X157003619Y29852857D01*
X156908381Y29519524D02*
X156908381Y28900476D01*
X157289333Y29233810D01*
X157289333Y29090952D01*
X157336952Y28995714D01*
X157384571Y28948095D01*
X157479810Y28900476D01*
X157717905Y28900476D01*
X157813143Y28948095D01*
X157860762Y28995714D01*
X157908381Y29090952D01*
X157908381Y29376667D01*
X157860762Y29471905D01*
X157813143Y29519524D01*
X157908381Y27948095D02*
X157908381Y28519524D01*
X157908381Y28233810D02*
X156908381Y28233810D01*
X157051238Y28329048D01*
X157146476Y28424286D01*
X157194095Y28519524D01*
X98377143Y29852857D02*
X98424762Y29900476D01*
X98472381Y30043333D01*
X98472381Y30138571D01*
X98424762Y30281429D01*
X98329524Y30376667D01*
X98234286Y30424286D01*
X98043810Y30471905D01*
X97900952Y30471905D01*
X97710476Y30424286D01*
X97615238Y30376667D01*
X97520000Y30281429D01*
X97472381Y30138571D01*
X97472381Y30043333D01*
X97520000Y29900476D01*
X97567619Y29852857D01*
X97472381Y29519524D02*
X97472381Y28900476D01*
X97853333Y29233810D01*
X97853333Y29090952D01*
X97900952Y28995714D01*
X97948571Y28948095D01*
X98043810Y28900476D01*
X98281905Y28900476D01*
X98377143Y28948095D01*
X98424762Y28995714D01*
X98472381Y29090952D01*
X98472381Y29376667D01*
X98424762Y29471905D01*
X98377143Y29519524D01*
X97567619Y28519524D02*
X97520000Y28471905D01*
X97472381Y28376667D01*
X97472381Y28138571D01*
X97520000Y28043333D01*
X97567619Y27995714D01*
X97662857Y27948095D01*
X97758095Y27948095D01*
X97900952Y27995714D01*
X98472381Y28567143D01*
X98472381Y27948095D01*
X165433143Y29852857D02*
X165480762Y29900476D01*
X165528381Y30043333D01*
X165528381Y30138571D01*
X165480762Y30281429D01*
X165385524Y30376667D01*
X165290286Y30424286D01*
X165099810Y30471905D01*
X164956952Y30471905D01*
X164766476Y30424286D01*
X164671238Y30376667D01*
X164576000Y30281429D01*
X164528381Y30138571D01*
X164528381Y30043333D01*
X164576000Y29900476D01*
X164623619Y29852857D01*
X164528381Y29519524D02*
X164528381Y28900476D01*
X164909333Y29233810D01*
X164909333Y29090952D01*
X164956952Y28995714D01*
X165004571Y28948095D01*
X165099810Y28900476D01*
X165337905Y28900476D01*
X165433143Y28948095D01*
X165480762Y28995714D01*
X165528381Y29090952D01*
X165528381Y29376667D01*
X165480762Y29471905D01*
X165433143Y29519524D01*
X164528381Y28567143D02*
X164528381Y27948095D01*
X164909333Y28281429D01*
X164909333Y28138571D01*
X164956952Y28043333D01*
X165004571Y27995714D01*
X165099810Y27948095D01*
X165337905Y27948095D01*
X165433143Y27995714D01*
X165480762Y28043333D01*
X165528381Y28138571D01*
X165528381Y28424286D01*
X165480762Y28519524D01*
X165433143Y28567143D01*
X105997143Y29852857D02*
X106044762Y29900476D01*
X106092381Y30043333D01*
X106092381Y30138571D01*
X106044762Y30281429D01*
X105949524Y30376667D01*
X105854286Y30424286D01*
X105663810Y30471905D01*
X105520952Y30471905D01*
X105330476Y30424286D01*
X105235238Y30376667D01*
X105140000Y30281429D01*
X105092381Y30138571D01*
X105092381Y30043333D01*
X105140000Y29900476D01*
X105187619Y29852857D01*
X105092381Y29519524D02*
X105092381Y28900476D01*
X105473333Y29233810D01*
X105473333Y29090952D01*
X105520952Y28995714D01*
X105568571Y28948095D01*
X105663810Y28900476D01*
X105901905Y28900476D01*
X105997143Y28948095D01*
X106044762Y28995714D01*
X106092381Y29090952D01*
X106092381Y29376667D01*
X106044762Y29471905D01*
X105997143Y29519524D01*
X105425714Y28043333D02*
X106092381Y28043333D01*
X105044762Y28281429D02*
X105759048Y28519524D01*
X105759048Y27900476D01*
X173053143Y29852857D02*
X173100762Y29900476D01*
X173148381Y30043333D01*
X173148381Y30138571D01*
X173100762Y30281429D01*
X173005524Y30376667D01*
X172910286Y30424286D01*
X172719810Y30471905D01*
X172576952Y30471905D01*
X172386476Y30424286D01*
X172291238Y30376667D01*
X172196000Y30281429D01*
X172148381Y30138571D01*
X172148381Y30043333D01*
X172196000Y29900476D01*
X172243619Y29852857D01*
X172148381Y29519524D02*
X172148381Y28900476D01*
X172529333Y29233810D01*
X172529333Y29090952D01*
X172576952Y28995714D01*
X172624571Y28948095D01*
X172719810Y28900476D01*
X172957905Y28900476D01*
X173053143Y28948095D01*
X173100762Y28995714D01*
X173148381Y29090952D01*
X173148381Y29376667D01*
X173100762Y29471905D01*
X173053143Y29519524D01*
X172148381Y27995714D02*
X172148381Y28471905D01*
X172624571Y28519524D01*
X172576952Y28471905D01*
X172529333Y28376667D01*
X172529333Y28138571D01*
X172576952Y28043333D01*
X172624571Y27995714D01*
X172719810Y27948095D01*
X172957905Y27948095D01*
X173053143Y27995714D01*
X173100762Y28043333D01*
X173148381Y28138571D01*
X173148381Y28376667D01*
X173100762Y28471905D01*
X173053143Y28519524D01*
X170121381Y43383047D02*
X169645190Y43716381D01*
X170121381Y43954476D02*
X169121381Y43954476D01*
X169121381Y43573523D01*
X169169000Y43478285D01*
X169216619Y43430666D01*
X169311857Y43383047D01*
X169454714Y43383047D01*
X169549952Y43430666D01*
X169597571Y43478285D01*
X169645190Y43573523D01*
X169645190Y43954476D01*
X170121381Y42430666D02*
X170121381Y43002095D01*
X170121381Y42716381D02*
X169121381Y42716381D01*
X169264238Y42811619D01*
X169359476Y42906857D01*
X169407095Y43002095D01*
X169216619Y42049714D02*
X169169000Y42002095D01*
X169121381Y41906857D01*
X169121381Y41668761D01*
X169169000Y41573523D01*
X169216619Y41525904D01*
X169311857Y41478285D01*
X169407095Y41478285D01*
X169549952Y41525904D01*
X170121381Y42097333D01*
X170121381Y41478285D01*
X169121381Y40621142D02*
X169121381Y40811619D01*
X169169000Y40906857D01*
X169216619Y40954476D01*
X169359476Y41049714D01*
X169549952Y41097333D01*
X169930905Y41097333D01*
X170026143Y41049714D01*
X170073762Y41002095D01*
X170121381Y40906857D01*
X170121381Y40716380D01*
X170073762Y40621142D01*
X170026143Y40573523D01*
X169930905Y40525904D01*
X169692810Y40525904D01*
X169597571Y40573523D01*
X169549952Y40621142D01*
X169502333Y40716380D01*
X169502333Y40906857D01*
X169549952Y41002095D01*
X169597571Y41049714D01*
X169692810Y41097333D01*
X103065381Y42875047D02*
X102589190Y43208381D01*
X103065381Y43446476D02*
X102065381Y43446476D01*
X102065381Y43065523D01*
X102113000Y42970285D01*
X102160619Y42922666D01*
X102255857Y42875047D01*
X102398714Y42875047D01*
X102493952Y42922666D01*
X102541571Y42970285D01*
X102589190Y43065523D01*
X102589190Y43446476D01*
X103065381Y41922666D02*
X103065381Y42494095D01*
X103065381Y42208381D02*
X102065381Y42208381D01*
X102208238Y42303619D01*
X102303476Y42398857D01*
X102351095Y42494095D01*
X102160619Y41541714D02*
X102113000Y41494095D01*
X102065381Y41398857D01*
X102065381Y41160761D01*
X102113000Y41065523D01*
X102160619Y41017904D01*
X102255857Y40970285D01*
X102351095Y40970285D01*
X102493952Y41017904D01*
X103065381Y41589333D01*
X103065381Y40970285D01*
X102065381Y40636952D02*
X102065381Y39970285D01*
X103065381Y40398857D01*
X173169381Y43383047D02*
X172693190Y43716381D01*
X173169381Y43954476D02*
X172169381Y43954476D01*
X172169381Y43573523D01*
X172217000Y43478285D01*
X172264619Y43430666D01*
X172359857Y43383047D01*
X172502714Y43383047D01*
X172597952Y43430666D01*
X172645571Y43478285D01*
X172693190Y43573523D01*
X172693190Y43954476D01*
X173169381Y42430666D02*
X173169381Y43002095D01*
X173169381Y42716381D02*
X172169381Y42716381D01*
X172312238Y42811619D01*
X172407476Y42906857D01*
X172455095Y43002095D01*
X172264619Y42049714D02*
X172217000Y42002095D01*
X172169381Y41906857D01*
X172169381Y41668761D01*
X172217000Y41573523D01*
X172264619Y41525904D01*
X172359857Y41478285D01*
X172455095Y41478285D01*
X172597952Y41525904D01*
X173169381Y42097333D01*
X173169381Y41478285D01*
X172597952Y40906857D02*
X172550333Y41002095D01*
X172502714Y41049714D01*
X172407476Y41097333D01*
X172359857Y41097333D01*
X172264619Y41049714D01*
X172217000Y41002095D01*
X172169381Y40906857D01*
X172169381Y40716380D01*
X172217000Y40621142D01*
X172264619Y40573523D01*
X172359857Y40525904D01*
X172407476Y40525904D01*
X172502714Y40573523D01*
X172550333Y40621142D01*
X172597952Y40716380D01*
X172597952Y40906857D01*
X172645571Y41002095D01*
X172693190Y41049714D01*
X172788429Y41097333D01*
X172978905Y41097333D01*
X173074143Y41049714D01*
X173121762Y41002095D01*
X173169381Y40906857D01*
X173169381Y40716380D01*
X173121762Y40621142D01*
X173074143Y40573523D01*
X172978905Y40525904D01*
X172788429Y40525904D01*
X172693190Y40573523D01*
X172645571Y40621142D01*
X172597952Y40716380D01*
X106113381Y42875047D02*
X105637190Y43208381D01*
X106113381Y43446476D02*
X105113381Y43446476D01*
X105113381Y43065523D01*
X105161000Y42970285D01*
X105208619Y42922666D01*
X105303857Y42875047D01*
X105446714Y42875047D01*
X105541952Y42922666D01*
X105589571Y42970285D01*
X105637190Y43065523D01*
X105637190Y43446476D01*
X106113381Y41922666D02*
X106113381Y42494095D01*
X106113381Y42208381D02*
X105113381Y42208381D01*
X105256238Y42303619D01*
X105351476Y42398857D01*
X105399095Y42494095D01*
X105208619Y41541714D02*
X105161000Y41494095D01*
X105113381Y41398857D01*
X105113381Y41160761D01*
X105161000Y41065523D01*
X105208619Y41017904D01*
X105303857Y40970285D01*
X105399095Y40970285D01*
X105541952Y41017904D01*
X106113381Y41589333D01*
X106113381Y40970285D01*
X106113381Y40494095D02*
X106113381Y40303619D01*
X106065762Y40208380D01*
X106018143Y40160761D01*
X105875286Y40065523D01*
X105684810Y40017904D01*
X105303857Y40017904D01*
X105208619Y40065523D01*
X105161000Y40113142D01*
X105113381Y40208380D01*
X105113381Y40398857D01*
X105161000Y40494095D01*
X105208619Y40541714D01*
X105303857Y40589333D01*
X105541952Y40589333D01*
X105637190Y40541714D01*
X105684810Y40494095D01*
X105732429Y40398857D01*
X105732429Y40208380D01*
X105684810Y40113142D01*
X105637190Y40065523D01*
X105541952Y40017904D01*
X176217381Y43383047D02*
X175741190Y43716381D01*
X176217381Y43954476D02*
X175217381Y43954476D01*
X175217381Y43573523D01*
X175265000Y43478285D01*
X175312619Y43430666D01*
X175407857Y43383047D01*
X175550714Y43383047D01*
X175645952Y43430666D01*
X175693571Y43478285D01*
X175741190Y43573523D01*
X175741190Y43954476D01*
X176217381Y42430666D02*
X176217381Y43002095D01*
X176217381Y42716381D02*
X175217381Y42716381D01*
X175360238Y42811619D01*
X175455476Y42906857D01*
X175503095Y43002095D01*
X175217381Y42097333D02*
X175217381Y41478285D01*
X175598333Y41811619D01*
X175598333Y41668761D01*
X175645952Y41573523D01*
X175693571Y41525904D01*
X175788810Y41478285D01*
X176026905Y41478285D01*
X176122143Y41525904D01*
X176169762Y41573523D01*
X176217381Y41668761D01*
X176217381Y41954476D01*
X176169762Y42049714D01*
X176122143Y42097333D01*
X175217381Y40859238D02*
X175217381Y40763999D01*
X175265000Y40668761D01*
X175312619Y40621142D01*
X175407857Y40573523D01*
X175598333Y40525904D01*
X175836429Y40525904D01*
X176026905Y40573523D01*
X176122143Y40621142D01*
X176169762Y40668761D01*
X176217381Y40763999D01*
X176217381Y40859238D01*
X176169762Y40954476D01*
X176122143Y41002095D01*
X176026905Y41049714D01*
X175836429Y41097333D01*
X175598333Y41097333D01*
X175407857Y41049714D01*
X175312619Y41002095D01*
X175265000Y40954476D01*
X175217381Y40859238D01*
X109161381Y42875047D02*
X108685190Y43208381D01*
X109161381Y43446476D02*
X108161381Y43446476D01*
X108161381Y43065523D01*
X108209000Y42970285D01*
X108256619Y42922666D01*
X108351857Y42875047D01*
X108494714Y42875047D01*
X108589952Y42922666D01*
X108637571Y42970285D01*
X108685190Y43065523D01*
X108685190Y43446476D01*
X109161381Y41922666D02*
X109161381Y42494095D01*
X109161381Y42208381D02*
X108161381Y42208381D01*
X108304238Y42303619D01*
X108399476Y42398857D01*
X108447095Y42494095D01*
X108161381Y41589333D02*
X108161381Y40970285D01*
X108542333Y41303619D01*
X108542333Y41160761D01*
X108589952Y41065523D01*
X108637571Y41017904D01*
X108732810Y40970285D01*
X108970905Y40970285D01*
X109066143Y41017904D01*
X109113762Y41065523D01*
X109161381Y41160761D01*
X109161381Y41446476D01*
X109113762Y41541714D01*
X109066143Y41589333D01*
X109161381Y40017904D02*
X109161381Y40589333D01*
X109161381Y40303619D02*
X108161381Y40303619D01*
X108304238Y40398857D01*
X108399476Y40494095D01*
X108447095Y40589333D01*
X179265381Y43383047D02*
X178789190Y43716381D01*
X179265381Y43954476D02*
X178265381Y43954476D01*
X178265381Y43573523D01*
X178313000Y43478285D01*
X178360619Y43430666D01*
X178455857Y43383047D01*
X178598714Y43383047D01*
X178693952Y43430666D01*
X178741571Y43478285D01*
X178789190Y43573523D01*
X178789190Y43954476D01*
X179265381Y42430666D02*
X179265381Y43002095D01*
X179265381Y42716381D02*
X178265381Y42716381D01*
X178408238Y42811619D01*
X178503476Y42906857D01*
X178551095Y43002095D01*
X178265381Y42097333D02*
X178265381Y41478285D01*
X178646333Y41811619D01*
X178646333Y41668761D01*
X178693952Y41573523D01*
X178741571Y41525904D01*
X178836810Y41478285D01*
X179074905Y41478285D01*
X179170143Y41525904D01*
X179217762Y41573523D01*
X179265381Y41668761D01*
X179265381Y41954476D01*
X179217762Y42049714D01*
X179170143Y42097333D01*
X178360619Y41097333D02*
X178313000Y41049714D01*
X178265381Y40954476D01*
X178265381Y40716380D01*
X178313000Y40621142D01*
X178360619Y40573523D01*
X178455857Y40525904D01*
X178551095Y40525904D01*
X178693952Y40573523D01*
X179265381Y41144952D01*
X179265381Y40525904D01*
X111701381Y42875047D02*
X111225190Y43208381D01*
X111701381Y43446476D02*
X110701381Y43446476D01*
X110701381Y43065523D01*
X110749000Y42970285D01*
X110796619Y42922666D01*
X110891857Y42875047D01*
X111034714Y42875047D01*
X111129952Y42922666D01*
X111177571Y42970285D01*
X111225190Y43065523D01*
X111225190Y43446476D01*
X111701381Y41922666D02*
X111701381Y42494095D01*
X111701381Y42208381D02*
X110701381Y42208381D01*
X110844238Y42303619D01*
X110939476Y42398857D01*
X110987095Y42494095D01*
X110701381Y41589333D02*
X110701381Y40970285D01*
X111082333Y41303619D01*
X111082333Y41160761D01*
X111129952Y41065523D01*
X111177571Y41017904D01*
X111272810Y40970285D01*
X111510905Y40970285D01*
X111606143Y41017904D01*
X111653762Y41065523D01*
X111701381Y41160761D01*
X111701381Y41446476D01*
X111653762Y41541714D01*
X111606143Y41589333D01*
X110701381Y40636952D02*
X110701381Y40017904D01*
X111082333Y40351238D01*
X111082333Y40208380D01*
X111129952Y40113142D01*
X111177571Y40065523D01*
X111272810Y40017904D01*
X111510905Y40017904D01*
X111606143Y40065523D01*
X111653762Y40113142D01*
X111701381Y40208380D01*
X111701381Y40494095D01*
X111653762Y40589333D01*
X111606143Y40636952D01*
X182313381Y43383047D02*
X181837190Y43716381D01*
X182313381Y43954476D02*
X181313381Y43954476D01*
X181313381Y43573523D01*
X181361000Y43478285D01*
X181408619Y43430666D01*
X181503857Y43383047D01*
X181646714Y43383047D01*
X181741952Y43430666D01*
X181789571Y43478285D01*
X181837190Y43573523D01*
X181837190Y43954476D01*
X182313381Y42430666D02*
X182313381Y43002095D01*
X182313381Y42716381D02*
X181313381Y42716381D01*
X181456238Y42811619D01*
X181551476Y42906857D01*
X181599095Y43002095D01*
X181313381Y42097333D02*
X181313381Y41478285D01*
X181694333Y41811619D01*
X181694333Y41668761D01*
X181741952Y41573523D01*
X181789571Y41525904D01*
X181884810Y41478285D01*
X182122905Y41478285D01*
X182218143Y41525904D01*
X182265762Y41573523D01*
X182313381Y41668761D01*
X182313381Y41954476D01*
X182265762Y42049714D01*
X182218143Y42097333D01*
X181646714Y40621142D02*
X182313381Y40621142D01*
X181265762Y40859238D02*
X181980048Y41097333D01*
X181980048Y40478285D01*
X114749381Y42875047D02*
X114273190Y43208381D01*
X114749381Y43446476D02*
X113749381Y43446476D01*
X113749381Y43065523D01*
X113797000Y42970285D01*
X113844619Y42922666D01*
X113939857Y42875047D01*
X114082714Y42875047D01*
X114177952Y42922666D01*
X114225571Y42970285D01*
X114273190Y43065523D01*
X114273190Y43446476D01*
X114749381Y41922666D02*
X114749381Y42494095D01*
X114749381Y42208381D02*
X113749381Y42208381D01*
X113892238Y42303619D01*
X113987476Y42398857D01*
X114035095Y42494095D01*
X113749381Y41589333D02*
X113749381Y40970285D01*
X114130333Y41303619D01*
X114130333Y41160761D01*
X114177952Y41065523D01*
X114225571Y41017904D01*
X114320810Y40970285D01*
X114558905Y40970285D01*
X114654143Y41017904D01*
X114701762Y41065523D01*
X114749381Y41160761D01*
X114749381Y41446476D01*
X114701762Y41541714D01*
X114654143Y41589333D01*
X113749381Y40065523D02*
X113749381Y40541714D01*
X114225571Y40589333D01*
X114177952Y40541714D01*
X114130333Y40446476D01*
X114130333Y40208380D01*
X114177952Y40113142D01*
X114225571Y40065523D01*
X114320810Y40017904D01*
X114558905Y40017904D01*
X114654143Y40065523D01*
X114701762Y40113142D01*
X114749381Y40208380D01*
X114749381Y40446476D01*
X114701762Y40541714D01*
X114654143Y40589333D01*
X185361381Y43383047D02*
X184885190Y43716381D01*
X185361381Y43954476D02*
X184361381Y43954476D01*
X184361381Y43573523D01*
X184409000Y43478285D01*
X184456619Y43430666D01*
X184551857Y43383047D01*
X184694714Y43383047D01*
X184789952Y43430666D01*
X184837571Y43478285D01*
X184885190Y43573523D01*
X184885190Y43954476D01*
X185361381Y42430666D02*
X185361381Y43002095D01*
X185361381Y42716381D02*
X184361381Y42716381D01*
X184504238Y42811619D01*
X184599476Y42906857D01*
X184647095Y43002095D01*
X184361381Y42097333D02*
X184361381Y41478285D01*
X184742333Y41811619D01*
X184742333Y41668761D01*
X184789952Y41573523D01*
X184837571Y41525904D01*
X184932810Y41478285D01*
X185170905Y41478285D01*
X185266143Y41525904D01*
X185313762Y41573523D01*
X185361381Y41668761D01*
X185361381Y41954476D01*
X185313762Y42049714D01*
X185266143Y42097333D01*
X184361381Y40621142D02*
X184361381Y40811619D01*
X184409000Y40906857D01*
X184456619Y40954476D01*
X184599476Y41049714D01*
X184789952Y41097333D01*
X185170905Y41097333D01*
X185266143Y41049714D01*
X185313762Y41002095D01*
X185361381Y40906857D01*
X185361381Y40716380D01*
X185313762Y40621142D01*
X185266143Y40573523D01*
X185170905Y40525904D01*
X184932810Y40525904D01*
X184837571Y40573523D01*
X184789952Y40621142D01*
X184742333Y40716380D01*
X184742333Y40906857D01*
X184789952Y41002095D01*
X184837571Y41049714D01*
X184932810Y41097333D01*
X117289381Y42875047D02*
X116813190Y43208381D01*
X117289381Y43446476D02*
X116289381Y43446476D01*
X116289381Y43065523D01*
X116337000Y42970285D01*
X116384619Y42922666D01*
X116479857Y42875047D01*
X116622714Y42875047D01*
X116717952Y42922666D01*
X116765571Y42970285D01*
X116813190Y43065523D01*
X116813190Y43446476D01*
X117289381Y41922666D02*
X117289381Y42494095D01*
X117289381Y42208381D02*
X116289381Y42208381D01*
X116432238Y42303619D01*
X116527476Y42398857D01*
X116575095Y42494095D01*
X116289381Y41589333D02*
X116289381Y40970285D01*
X116670333Y41303619D01*
X116670333Y41160761D01*
X116717952Y41065523D01*
X116765571Y41017904D01*
X116860810Y40970285D01*
X117098905Y40970285D01*
X117194143Y41017904D01*
X117241762Y41065523D01*
X117289381Y41160761D01*
X117289381Y41446476D01*
X117241762Y41541714D01*
X117194143Y41589333D01*
X116289381Y40636952D02*
X116289381Y39970285D01*
X117289381Y40398857D01*
X80945381Y38842857D02*
X80469190Y39176191D01*
X80945381Y39414286D02*
X79945381Y39414286D01*
X79945381Y39033333D01*
X79993000Y38938095D01*
X80040619Y38890476D01*
X80135857Y38842857D01*
X80278714Y38842857D01*
X80373952Y38890476D01*
X80421571Y38938095D01*
X80469190Y39033333D01*
X80469190Y39414286D01*
X80040619Y38461905D02*
X79993000Y38414286D01*
X79945381Y38319048D01*
X79945381Y38080952D01*
X79993000Y37985714D01*
X80040619Y37938095D01*
X80135857Y37890476D01*
X80231095Y37890476D01*
X80373952Y37938095D01*
X80945381Y38509524D01*
X80945381Y37890476D01*
X79945381Y37557143D02*
X79945381Y36938095D01*
X80326333Y37271429D01*
X80326333Y37128571D01*
X80373952Y37033333D01*
X80421571Y36985714D01*
X80516810Y36938095D01*
X80754905Y36938095D01*
X80850143Y36985714D01*
X80897762Y37033333D01*
X80945381Y37128571D01*
X80945381Y37414286D01*
X80897762Y37509524D01*
X80850143Y37557143D01*
X125649381Y38842857D02*
X125173190Y39176191D01*
X125649381Y39414286D02*
X124649381Y39414286D01*
X124649381Y39033333D01*
X124697000Y38938095D01*
X124744619Y38890476D01*
X124839857Y38842857D01*
X124982714Y38842857D01*
X125077952Y38890476D01*
X125125571Y38938095D01*
X125173190Y39033333D01*
X125173190Y39414286D01*
X124744619Y38461905D02*
X124697000Y38414286D01*
X124649381Y38319048D01*
X124649381Y38080952D01*
X124697000Y37985714D01*
X124744619Y37938095D01*
X124839857Y37890476D01*
X124935095Y37890476D01*
X125077952Y37938095D01*
X125649381Y38509524D01*
X125649381Y37890476D01*
X124649381Y37033333D02*
X124649381Y37223810D01*
X124697000Y37319048D01*
X124744619Y37366667D01*
X124887476Y37461905D01*
X125077952Y37509524D01*
X125458905Y37509524D01*
X125554143Y37461905D01*
X125601762Y37414286D01*
X125649381Y37319048D01*
X125649381Y37128571D01*
X125601762Y37033333D01*
X125554143Y36985714D01*
X125458905Y36938095D01*
X125220810Y36938095D01*
X125125571Y36985714D01*
X125077952Y37033333D01*
X125030333Y37128571D01*
X125030333Y37319048D01*
X125077952Y37414286D01*
X125125571Y37461905D01*
X125220810Y37509524D01*
X148509381Y38842857D02*
X148033190Y39176191D01*
X148509381Y39414286D02*
X147509381Y39414286D01*
X147509381Y39033333D01*
X147557000Y38938095D01*
X147604619Y38890476D01*
X147699857Y38842857D01*
X147842714Y38842857D01*
X147937952Y38890476D01*
X147985571Y38938095D01*
X148033190Y39033333D01*
X148033190Y39414286D01*
X147604619Y38461905D02*
X147557000Y38414286D01*
X147509381Y38319048D01*
X147509381Y38080952D01*
X147557000Y37985714D01*
X147604619Y37938095D01*
X147699857Y37890476D01*
X147795095Y37890476D01*
X147937952Y37938095D01*
X148509381Y38509524D01*
X148509381Y37890476D01*
X147509381Y37557143D02*
X147509381Y36890476D01*
X148509381Y37319048D01*
X65197381Y38842857D02*
X64721190Y39176191D01*
X65197381Y39414286D02*
X64197381Y39414286D01*
X64197381Y39033333D01*
X64245000Y38938095D01*
X64292619Y38890476D01*
X64387857Y38842857D01*
X64530714Y38842857D01*
X64625952Y38890476D01*
X64673571Y38938095D01*
X64721190Y39033333D01*
X64721190Y39414286D01*
X64197381Y37938095D02*
X64197381Y38414286D01*
X64673571Y38461905D01*
X64625952Y38414286D01*
X64578333Y38319048D01*
X64578333Y38080952D01*
X64625952Y37985714D01*
X64673571Y37938095D01*
X64768810Y37890476D01*
X65006905Y37890476D01*
X65102143Y37938095D01*
X65149762Y37985714D01*
X65197381Y38080952D01*
X65197381Y38319048D01*
X65149762Y38414286D01*
X65102143Y38461905D01*
X65197381Y36938095D02*
X65197381Y37509524D01*
X65197381Y37223810D02*
X64197381Y37223810D01*
X64340238Y37319048D01*
X64435476Y37414286D01*
X64483095Y37509524D01*
X88565381Y38842857D02*
X88089190Y39176191D01*
X88565381Y39414286D02*
X87565381Y39414286D01*
X87565381Y39033333D01*
X87613000Y38938095D01*
X87660619Y38890476D01*
X87755857Y38842857D01*
X87898714Y38842857D01*
X87993952Y38890476D01*
X88041571Y38938095D01*
X88089190Y39033333D01*
X88089190Y39414286D01*
X87565381Y37938095D02*
X87565381Y38414286D01*
X88041571Y38461905D01*
X87993952Y38414286D01*
X87946333Y38319048D01*
X87946333Y38080952D01*
X87993952Y37985714D01*
X88041571Y37938095D01*
X88136810Y37890476D01*
X88374905Y37890476D01*
X88470143Y37938095D01*
X88517762Y37985714D01*
X88565381Y38080952D01*
X88565381Y38319048D01*
X88517762Y38414286D01*
X88470143Y38461905D01*
X87660619Y37509524D02*
X87613000Y37461905D01*
X87565381Y37366667D01*
X87565381Y37128571D01*
X87613000Y37033333D01*
X87660619Y36985714D01*
X87755857Y36938095D01*
X87851095Y36938095D01*
X87993952Y36985714D01*
X88565381Y37557143D01*
X88565381Y36938095D01*
X133269381Y38842857D02*
X132793190Y39176191D01*
X133269381Y39414286D02*
X132269381Y39414286D01*
X132269381Y39033333D01*
X132317000Y38938095D01*
X132364619Y38890476D01*
X132459857Y38842857D01*
X132602714Y38842857D01*
X132697952Y38890476D01*
X132745571Y38938095D01*
X132793190Y39033333D01*
X132793190Y39414286D01*
X132269381Y37938095D02*
X132269381Y38414286D01*
X132745571Y38461905D01*
X132697952Y38414286D01*
X132650333Y38319048D01*
X132650333Y38080952D01*
X132697952Y37985714D01*
X132745571Y37938095D01*
X132840810Y37890476D01*
X133078905Y37890476D01*
X133174143Y37938095D01*
X133221762Y37985714D01*
X133269381Y38080952D01*
X133269381Y38319048D01*
X133221762Y38414286D01*
X133174143Y38461905D01*
X132269381Y36985714D02*
X132269381Y37461905D01*
X132745571Y37509524D01*
X132697952Y37461905D01*
X132650333Y37366667D01*
X132650333Y37128571D01*
X132697952Y37033333D01*
X132745571Y36985714D01*
X132840810Y36938095D01*
X133078905Y36938095D01*
X133174143Y36985714D01*
X133221762Y37033333D01*
X133269381Y37128571D01*
X133269381Y37366667D01*
X133221762Y37461905D01*
X133174143Y37509524D01*
X155621381Y38842857D02*
X155145190Y39176191D01*
X155621381Y39414286D02*
X154621381Y39414286D01*
X154621381Y39033333D01*
X154669000Y38938095D01*
X154716619Y38890476D01*
X154811857Y38842857D01*
X154954714Y38842857D01*
X155049952Y38890476D01*
X155097571Y38938095D01*
X155145190Y39033333D01*
X155145190Y39414286D01*
X154621381Y37938095D02*
X154621381Y38414286D01*
X155097571Y38461905D01*
X155049952Y38414286D01*
X155002333Y38319048D01*
X155002333Y38080952D01*
X155049952Y37985714D01*
X155097571Y37938095D01*
X155192810Y37890476D01*
X155430905Y37890476D01*
X155526143Y37938095D01*
X155573762Y37985714D01*
X155621381Y38080952D01*
X155621381Y38319048D01*
X155573762Y38414286D01*
X155526143Y38461905D01*
X154621381Y37033333D02*
X154621381Y37223810D01*
X154669000Y37319048D01*
X154716619Y37366667D01*
X154859476Y37461905D01*
X155049952Y37509524D01*
X155430905Y37509524D01*
X155526143Y37461905D01*
X155573762Y37414286D01*
X155621381Y37319048D01*
X155621381Y37128571D01*
X155573762Y37033333D01*
X155526143Y36985714D01*
X155430905Y36938095D01*
X155192810Y36938095D01*
X155097571Y36985714D01*
X155049952Y37033333D01*
X155002333Y37128571D01*
X155002333Y37319048D01*
X155049952Y37414286D01*
X155097571Y37461905D01*
X155192810Y37509524D01*
X73325381Y38842857D02*
X72849190Y39176191D01*
X73325381Y39414286D02*
X72325381Y39414286D01*
X72325381Y39033333D01*
X72373000Y38938095D01*
X72420619Y38890476D01*
X72515857Y38842857D01*
X72658714Y38842857D01*
X72753952Y38890476D01*
X72801571Y38938095D01*
X72849190Y39033333D01*
X72849190Y39414286D01*
X72325381Y38509524D02*
X72325381Y37842857D01*
X73325381Y38271429D01*
X73325381Y37414286D02*
X73325381Y37223810D01*
X73277762Y37128571D01*
X73230143Y37080952D01*
X73087286Y36985714D01*
X72896810Y36938095D01*
X72515857Y36938095D01*
X72420619Y36985714D01*
X72373000Y37033333D01*
X72325381Y37128571D01*
X72325381Y37319048D01*
X72373000Y37414286D01*
X72420619Y37461905D01*
X72515857Y37509524D01*
X72753952Y37509524D01*
X72849190Y37461905D01*
X72896810Y37414286D01*
X72944429Y37319048D01*
X72944429Y37128571D01*
X72896810Y37033333D01*
X72849190Y36985714D01*
X72753952Y36938095D01*
X96185381Y38842857D02*
X95709190Y39176191D01*
X96185381Y39414286D02*
X95185381Y39414286D01*
X95185381Y39033333D01*
X95233000Y38938095D01*
X95280619Y38890476D01*
X95375857Y38842857D01*
X95518714Y38842857D01*
X95613952Y38890476D01*
X95661571Y38938095D01*
X95709190Y39033333D01*
X95709190Y39414286D01*
X95613952Y38271429D02*
X95566333Y38366667D01*
X95518714Y38414286D01*
X95423476Y38461905D01*
X95375857Y38461905D01*
X95280619Y38414286D01*
X95233000Y38366667D01*
X95185381Y38271429D01*
X95185381Y38080952D01*
X95233000Y37985714D01*
X95280619Y37938095D01*
X95375857Y37890476D01*
X95423476Y37890476D01*
X95518714Y37938095D01*
X95566333Y37985714D01*
X95613952Y38080952D01*
X95613952Y38271429D01*
X95661571Y38366667D01*
X95709190Y38414286D01*
X95804429Y38461905D01*
X95994905Y38461905D01*
X96090143Y38414286D01*
X96137762Y38366667D01*
X96185381Y38271429D01*
X96185381Y38080952D01*
X96137762Y37985714D01*
X96090143Y37938095D01*
X95994905Y37890476D01*
X95804429Y37890476D01*
X95709190Y37938095D01*
X95661571Y37985714D01*
X95613952Y38080952D01*
X95185381Y37271429D02*
X95185381Y37176190D01*
X95233000Y37080952D01*
X95280619Y37033333D01*
X95375857Y36985714D01*
X95566333Y36938095D01*
X95804429Y36938095D01*
X95994905Y36985714D01*
X96090143Y37033333D01*
X96137762Y37080952D01*
X96185381Y37176190D01*
X96185381Y37271429D01*
X96137762Y37366667D01*
X96090143Y37414286D01*
X95994905Y37461905D01*
X95804429Y37509524D01*
X95566333Y37509524D01*
X95375857Y37461905D01*
X95280619Y37414286D01*
X95233000Y37366667D01*
X95185381Y37271429D01*
X140889381Y38842857D02*
X140413190Y39176191D01*
X140889381Y39414286D02*
X139889381Y39414286D01*
X139889381Y39033333D01*
X139937000Y38938095D01*
X139984619Y38890476D01*
X140079857Y38842857D01*
X140222714Y38842857D01*
X140317952Y38890476D01*
X140365571Y38938095D01*
X140413190Y39033333D01*
X140413190Y39414286D01*
X140317952Y38271429D02*
X140270333Y38366667D01*
X140222714Y38414286D01*
X140127476Y38461905D01*
X140079857Y38461905D01*
X139984619Y38414286D01*
X139937000Y38366667D01*
X139889381Y38271429D01*
X139889381Y38080952D01*
X139937000Y37985714D01*
X139984619Y37938095D01*
X140079857Y37890476D01*
X140127476Y37890476D01*
X140222714Y37938095D01*
X140270333Y37985714D01*
X140317952Y38080952D01*
X140317952Y38271429D01*
X140365571Y38366667D01*
X140413190Y38414286D01*
X140508429Y38461905D01*
X140698905Y38461905D01*
X140794143Y38414286D01*
X140841762Y38366667D01*
X140889381Y38271429D01*
X140889381Y38080952D01*
X140841762Y37985714D01*
X140794143Y37938095D01*
X140698905Y37890476D01*
X140508429Y37890476D01*
X140413190Y37938095D01*
X140365571Y37985714D01*
X140317952Y38080952D01*
X139889381Y37557143D02*
X139889381Y36938095D01*
X140270333Y37271429D01*
X140270333Y37128571D01*
X140317952Y37033333D01*
X140365571Y36985714D01*
X140460810Y36938095D01*
X140698905Y36938095D01*
X140794143Y36985714D01*
X140841762Y37033333D01*
X140889381Y37128571D01*
X140889381Y37414286D01*
X140841762Y37509524D01*
X140794143Y37557143D01*
X162733381Y38842857D02*
X162257190Y39176191D01*
X162733381Y39414286D02*
X161733381Y39414286D01*
X161733381Y39033333D01*
X161781000Y38938095D01*
X161828619Y38890476D01*
X161923857Y38842857D01*
X162066714Y38842857D01*
X162161952Y38890476D01*
X162209571Y38938095D01*
X162257190Y39033333D01*
X162257190Y39414286D01*
X162161952Y38271429D02*
X162114333Y38366667D01*
X162066714Y38414286D01*
X161971476Y38461905D01*
X161923857Y38461905D01*
X161828619Y38414286D01*
X161781000Y38366667D01*
X161733381Y38271429D01*
X161733381Y38080952D01*
X161781000Y37985714D01*
X161828619Y37938095D01*
X161923857Y37890476D01*
X161971476Y37890476D01*
X162066714Y37938095D01*
X162114333Y37985714D01*
X162161952Y38080952D01*
X162161952Y38271429D01*
X162209571Y38366667D01*
X162257190Y38414286D01*
X162352429Y38461905D01*
X162542905Y38461905D01*
X162638143Y38414286D01*
X162685762Y38366667D01*
X162733381Y38271429D01*
X162733381Y38080952D01*
X162685762Y37985714D01*
X162638143Y37938095D01*
X162542905Y37890476D01*
X162352429Y37890476D01*
X162257190Y37938095D01*
X162209571Y37985714D01*
X162161952Y38080952D01*
X162066714Y37033333D02*
X162733381Y37033333D01*
X161685762Y37271429D02*
X162400048Y37509524D01*
X162400048Y36890476D01*
M02*
